{
  "installed": {
    "client_id": "115129699278-h0o2639t3mlikho62hc5qc64e4goqrvh.apps.googleusercontent.com",
    "project_id": "quickstart-1553983959721",
    "auth_uri": "https://accounts.google.com/o/oauth2/auth",
    "token_uri": "https://oauth2.googleapis.com/token",
    "auth_provider_x509_cert_url": "https://www.googleapis.com/oauth2/v1/certs",
    "client_secret": "j3HIc5zWjSOx152HBTmZF9ie",
    "redirect_uris": [
      "urn:ietf:wg:oauth:2.0:oob",
      "http://localhost"
    ]
  }
}

